<svg width="192" height="33" viewBox="0 0 192 33" fill="none" xmlns="http://www.w3.org/2000/svg">
<path d="M25.6166 0C18.38 0 12.1936 4.74828 10.0705 11.3L14.9786 16.2081C15.0699 10.4097 19.7954 5.70707 25.6394 5.70707C31.5063 5.70707 36.3002 10.4782 36.3002 16.3679C36.3002 22.2347 31.5291 27.0287 25.6394 27.0287C25.3198 27.0287 25.023 27.0059 24.7035 26.983L19.978 31.7085C21.7358 32.3705 23.6534 32.7129 25.6394 32.7129C34.6566 32.7129 42.0073 25.3622 42.0073 16.345C41.9845 7.35071 34.6338 0 25.6166 0Z" fill="white"/>
<path d="M27.9276 12.7387L14.2226 26.4436L18.2626 30.4757L31.963 16.7741L27.9276 12.7387Z" fill="#59CFC8"/>
<path d="M4.03547 8.19817L0 12.2336L18.2403 30.474L22.2758 26.4385L4.03547 8.19817Z" fill="#59CFC8"/>
<path d="M18.2655 22.4282L14.23 26.4637L18.2403 30.474L22.2758 26.4385L18.2655 22.4282Z" fill="white"/>
<path d="M62.3358 6.08467C64.4786 6.08467 66.3584 6.50349 67.9753 7.34114C69.6116 8.17878 70.8681 9.37681 71.7447 10.9352C72.6408 12.4742 73.0888 14.2663 73.0888 16.3117C73.0888 18.3572 72.6408 20.1493 71.7447 21.6883C70.8681 23.2077 69.6116 24.3863 67.9753 25.2239C66.3584 26.0615 64.4786 26.4804 62.3358 26.4804H55.2061V6.08467H62.3358ZM62.1897 23.0032C64.3325 23.0032 65.9883 22.4188 67.1571 21.25C68.3259 20.0811 68.9103 18.4351 68.9103 16.3117C68.9103 14.1884 68.3259 12.5326 67.1571 11.3443C65.9883 10.1365 64.3325 9.53265 62.1897 9.53265H59.2969V23.0032H62.1897Z" fill="#59CFC8"/>
<path d="M89.7384 18.0357C89.7384 18.6201 89.6994 19.1461 89.6215 19.6136H77.7873C77.8847 20.7824 78.2938 21.698 79.0146 22.3603C79.7353 23.0226 80.6217 23.3538 81.6736 23.3538C83.1931 23.3538 84.2742 22.7012 84.9171 21.3961H89.3293C88.8618 22.9545 87.9657 24.2402 86.641 25.2531C85.3164 26.2466 83.6898 26.7433 81.7613 26.7433C80.2029 26.7433 78.8003 26.4024 77.5536 25.7206C76.3263 25.0194 75.3621 24.0356 74.6608 22.7694C73.979 21.5032 73.6381 20.0422 73.6381 18.3864C73.6381 16.7111 73.979 15.2403 74.6608 13.9741C75.3426 12.7079 76.2971 11.7339 77.5243 11.0521C78.7516 10.3703 80.1639 10.0294 81.7613 10.0294C83.3002 10.0294 84.6736 10.3606 85.8813 11.0229C87.1086 11.6852 88.0534 12.63 88.7157 13.8572C89.3975 15.065 89.7384 16.4578 89.7384 18.0357ZM85.5015 16.8669C85.482 15.815 85.1021 14.9773 84.3619 14.354C83.6216 13.7111 82.7158 13.3897 81.6444 13.3897C80.6314 13.3897 79.7743 13.7014 79.073 14.3248C78.3912 14.9286 77.9724 15.776 77.8166 16.8669H85.5015Z" fill="#59CFC8"/>
<path d="M100.205 26.4804L96.8736 21.4545L93.9224 26.4804H89.5393L94.8282 18.3572L89.4809 10.2924H94.0977L97.3996 15.289L100.38 10.2924H104.763L99.445 18.3572L104.821 26.4804H100.205Z" fill="#59CFC8"/>
<path d="M104.589 16.2533C104.589 14.2468 105.037 12.4547 105.933 10.8768C106.849 9.27941 108.086 8.04242 109.644 7.16582C111.222 6.26973 112.985 5.82169 114.933 5.82169C117.212 5.82169 119.209 6.40609 120.923 7.5749C122.637 8.74371 123.835 10.3606 124.517 12.4255H119.813C119.345 11.4514 118.683 10.7209 117.826 10.2339C116.988 9.74693 116.014 9.50343 114.904 9.50343C113.715 9.50343 112.654 9.78589 111.719 10.3508C110.803 10.8963 110.082 11.6755 109.556 12.6884C109.05 13.7014 108.797 14.8897 108.797 16.2533C108.797 17.5974 109.05 18.7857 109.556 19.8182C110.082 20.8311 110.803 21.6201 111.719 22.185C112.654 22.7304 113.715 23.0032 114.904 23.0032C116.014 23.0032 116.988 22.7597 117.826 22.2727C118.683 21.7662 119.345 21.0259 119.813 20.0519H124.517C123.835 22.1363 122.637 23.7629 120.923 24.9317C119.228 26.081 117.231 26.6557 114.933 26.6557C112.985 26.6557 111.222 26.2174 109.644 25.3408C108.086 24.4447 106.849 23.2077 105.933 21.6298C105.037 20.0519 104.589 18.2598 104.589 16.2533Z" fill="white"/>
<path d="M135.667 10.0586C136.894 10.0586 137.985 10.3313 138.939 10.8768C139.894 11.4027 140.634 12.1917 141.16 13.2436C141.706 14.2761 141.978 15.5228 141.978 16.9838V26.4804H137.888V17.539C137.888 16.2533 137.566 15.2696 136.923 14.5877C136.28 13.8865 135.404 13.5358 134.293 13.5358C133.164 13.5358 132.268 13.8865 131.605 14.5877C130.962 15.2696 130.641 16.2533 130.641 17.539V26.4804H126.55V4.85742H130.641V12.3086C131.167 11.6073 131.868 11.0618 132.745 10.6722C133.621 10.2632 134.595 10.0586 135.667 10.0586Z" fill="white"/>
<path d="M159.456 18.0357C159.456 18.6201 159.417 19.1461 159.339 19.6136H147.505C147.602 20.7824 148.011 21.698 148.732 22.3603C149.453 23.0226 150.339 23.3538 151.391 23.3538C152.911 23.3538 153.992 22.7012 154.635 21.3961H159.047C158.579 22.9545 157.683 24.2402 156.359 25.2531C155.034 26.2466 153.407 26.7433 151.479 26.7433C149.92 26.7433 148.518 26.4024 147.271 25.7206C146.044 25.0194 145.08 24.0356 144.378 22.7694C143.697 21.5032 143.356 20.0422 143.356 18.3864C143.356 16.7111 143.697 15.2403 144.378 13.9741C145.06 12.7079 146.015 11.7339 147.242 11.0521C148.469 10.3703 149.881 10.0294 151.479 10.0294C153.018 10.0294 154.391 10.3606 155.599 11.0229C156.826 11.6852 157.771 12.63 158.433 13.8572C159.115 15.065 159.456 16.4578 159.456 18.0357ZM155.219 16.8669C155.2 15.815 154.82 14.9773 154.079 14.354C153.339 13.7111 152.433 13.3897 151.362 13.3897C150.349 13.3897 149.492 13.7014 148.791 14.3248C148.109 14.9286 147.69 15.776 147.534 16.8669H155.219Z" fill="white"/>
<path d="M159.929 18.3864C159.929 16.7111 160.27 15.2501 160.952 14.0033C161.633 12.7371 162.578 11.7631 163.786 11.0813C164.994 10.38 166.377 10.0294 167.935 10.0294C169.942 10.0294 171.598 10.5359 172.903 11.5488C174.227 12.5423 175.114 13.9449 175.562 15.7566H171.15C170.916 15.0553 170.516 14.5098 169.951 14.1202C169.406 13.7111 168.724 13.5066 167.906 13.5066C166.737 13.5066 165.812 13.9352 165.13 14.7923C164.448 15.6299 164.107 16.828 164.107 18.3864C164.107 19.9253 164.448 21.1233 165.13 21.9805C165.812 22.8181 166.737 23.2369 167.906 23.2369C169.562 23.2369 170.643 22.4967 171.15 21.0162H175.562C175.114 22.7694 174.227 24.1622 172.903 25.1947C171.578 26.2271 169.922 26.7433 167.935 26.7433C166.377 26.7433 164.994 26.4024 163.786 25.7206C162.578 25.0194 161.633 24.0454 160.952 22.7986C160.27 21.5324 159.929 20.0617 159.929 18.3864Z" fill="white"/>
<path d="M186.682 26.4804L181.188 19.5844V26.4804H177.098V4.85742H181.188V17.1591L186.623 10.2924H191.941L184.812 18.4156L192 26.4804H186.682Z" fill="white"/>
</svg>
