<svg width="20" height="32" viewBox="0 0 20 32" fill="none" xmlns="http://www.w3.org/2000/svg">
<path fill-rule="evenodd" clip-rule="evenodd" d="M11.5779 11.0955L17.3668 7.71859V14.4724L11.5779 11.0955ZM17.3668 25.5678L9.64824 30.0704L1.92965 25.5678V17.6884L9.64824 22.191L17.3668 17.6884V25.5678ZM1.92965 7.71859L7.71859 11.0955L1.92965 14.4724V7.71859ZM10.6131 12.7035L16.402 16.0804L10.6131 19.4573V12.7035ZM8.68342 19.4573L2.89447 16.0804L8.68342 12.7035V19.4573ZM16.402 6.11055L9.64824 9.96985L2.89447 6.11055L9.64824 2.09045L16.402 6.11055ZM0 5.46734V26.5327L9.64824 32L19.2965 26.5327V5.46734L9.64824 0L0 5.46734Z" fill="white"/>
</svg>
