<svg width="24" height="24" viewBox="0 0 24 24" fill="none" xmlns="http://www.w3.org/2000/svg">
<g clip-path="url(#clip0_1172_46608)">
<path d="M1.17871 22.4418C1.17871 22.8022 1.47 23.0935 1.83041 23.0935H4.60013C4.96053 23.0935 5.25182 22.8022 5.25182 22.4418V10.8495L1.17871 6.77637C1.17871 6.77637 1.17871 22.4418 1.17871 22.4418Z" fill="white"/>
<path d="M6.83643 12.4346V22.4421C6.83643 22.8025 7.12771 23.0938 7.48812 23.0938H10.2578C10.6182 23.0938 10.9095 22.8025 10.9095 22.4421V15.5795C10.2183 15.4906 9.58146 15.1845 9.08281 14.6859L6.83643 12.4346Z" fill="white"/>
<path d="M18.1572 18.2109V22.442C18.1572 22.8025 18.4485 23.0937 18.8089 23.0937H21.5787C21.9391 23.0937 22.2304 22.8025 22.2304 22.442V18.4183C20.9961 18.3591 19.7618 18.3047 18.5275 18.2455C18.4436 18.2406 18.3103 18.2307 18.1572 18.2109Z" fill="white"/>
<path d="M16.5085 13.8364L15.447 12.7749L13.5364 14.6856C13.2352 14.9867 12.8797 15.2188 12.4946 15.3768V22.4418C12.4946 22.8022 12.7859 23.0934 13.1463 23.0934H15.916C16.2764 23.0934 16.5677 22.8022 16.5677 22.4418V17.4158C16.3653 17.2035 16.1975 16.9616 16.0691 16.6851C15.8568 16.2111 15.4816 15.0163 16.5085 13.8364Z" fill="white"/>
<path d="M23.998 15.6336L23.9289 14.1969C23.8845 13.2391 23.84 12.2863 23.7956 11.3285C23.7857 11.1063 23.7462 10.82 23.5191 10.5978C23.4599 10.5385 23.3858 10.4793 23.3019 10.4349C23.1785 10.3657 23.055 10.3361 22.9365 10.3361C22.6502 10.3361 22.4626 10.5237 22.3293 10.657L22.0182 10.9681C21.7664 11.2199 21.5196 11.4667 21.2678 11.7185C21.2431 11.7432 21.2184 11.7629 21.1937 11.7876L16.3504 6.94433C16.1085 6.70241 15.7876 6.56911 15.4519 6.56911C15.1162 6.56911 14.7903 6.70241 14.5533 6.94433L11.3195 10.1781L2.41795 1.28147C2.17603 1.03955 1.86005 0.90625 1.51939 0.90625C1.17873 0.90625 0.857821 1.03955 0.615903 1.28147L0.373985 1.52339C-0.124662 2.02204 -0.124662 2.82678 0.373985 3.32543L10.4111 13.3626C10.653 13.6045 10.969 13.7378 11.3097 13.7378C11.6503 13.7378 11.9712 13.6045 12.2132 13.3626L15.447 10.1288L19.1498 13.8316C18.8881 14.0883 18.6314 14.345 18.3747 14.6067L18.0044 14.977C17.8563 15.1251 17.5502 15.4312 17.7723 15.9002C17.8168 15.994 17.8711 16.073 17.9353 16.1372C18.1476 16.3495 18.4191 16.3643 18.6116 16.3693C20.0829 16.4384 21.5591 16.5075 23.0303 16.5766C23.055 16.5766 23.0847 16.5766 23.1143 16.5766C23.4056 16.5766 23.6327 16.4976 23.7857 16.3347C23.9437 16.1718 24.0128 15.9397 23.998 15.6336Z" fill="white"/>
</g>
<defs>
<clipPath id="clip0_1172_46608">
<rect width="24" height="24" fill="white"/>
</clipPath>
</defs>
</svg>
