<svg width="24" height="24" viewBox="0 0 24 24" fill="none" xmlns="http://www.w3.org/2000/svg">
<g clip-path="url(#clip0_1172_46505)">
<path d="M17.676 0.388672C14.189 0.388672 11.3521 3.22553 11.3521 6.7126V9.46087H1.38009C0.617937 9.46087 0 10.0787 0 10.841V22.2311C0 22.9933 0.617937 23.6112 1.38009 23.6112H15.5233C16.2856 23.6112 16.9034 22.9933 16.9034 22.2311V10.841C16.9034 10.0787 16.2856 9.46087 15.5233 9.46087H14.7756V6.7126C14.7756 5.11332 16.0767 3.81214 17.6761 3.81214C19.2754 3.81214 20.5766 5.11324 20.5766 6.7126C20.5766 7.65799 21.343 8.42433 22.2884 8.42433C23.2337 8.42433 24.0001 7.65799 24.0001 6.7126C24 3.22562 21.1631 0.388672 17.676 0.388672ZM9.79251 16.6703V18.9325C9.79251 19.673 9.1922 20.2733 8.4517 20.2733C7.7112 20.2733 7.1109 19.673 7.1109 18.9325V16.6703C6.60722 16.2732 6.28344 15.6581 6.28344 14.967C6.28344 13.7695 7.25417 12.7988 8.4517 12.7988C9.64923 12.7988 10.62 13.7695 10.62 14.967C10.62 15.6581 10.2962 16.2732 9.79251 16.6703Z" fill="white"/>
</g>
<defs>
<clipPath id="clip0_1172_46505">
<rect width="24" height="24" fill="white"/>
</clipPath>
</defs>
</svg>
